%YAML 1.1
%TAG !u! tag:unity3d.com,2011:
--- !u!114 &11400000
MonoBehaviour:
  m_ObjectHideFlags: 0
  m_CorrespondingSourceObject: {fileID: 0}
  m_PrefabInstance: {fileID: 0}
  m_PrefabAsset: {fileID: 0}
  m_GameObject: {fileID: 0}
  m_Enabled: 1
  m_EditorHideFlags: 0
  m_Script: {fileID: 11500000, guid: d999eadde0e523e42a0ce20d80351b73, type: 3}
  m_Name: TutorialTreasure
  m_EditorClassIdentifier: 
  id: 6
  localData: {fileID: 11400000, guid: 983da3af20557874e985ec6e6be333fd, type: 2}
  questType: 1
  giveItems:
    item: {fileID: 11400000, guid: 18f0a20f500ba6944b7987f65862231e, type: 2}
    amount: 3
  killTypeID: 0
  killAmount: 0
