%YAML 1.1
%TAG !u! tag:unity3d.com,2011:
--- !u!687078895 &4343727234628468602
SpriteAtlas:
  m_ObjectHideFlags: 0
  m_CorrespondingSourceObject: {fileID: 0}
  m_PrefabInstance: {fileID: 0}
  m_PrefabAsset: {fileID: 0}
  m_Name: Ground
  m_EditorData:
    serializedVersion: 2
    textureSettings:
      serializedVersion: 2
      anisoLevel: 1
      compressionQuality: 50
      maxTextureSize: 2048
      textureCompression: 0
      filterMode: 0
      generateMipMaps: 0
      readable: 0
      crunchedCompression: 0
      sRGB: 1
    platformSettings:
    - serializedVersion: 2
      m_BuildTarget: DefaultTexturePlatform
      m_MaxTextureSize: 2048
      m_ResizeAlgorithm: 0
      m_TextureFormat: -1
      m_TextureCompression: 0
      m_CompressionQuality: 50
      m_CrunchedCompression: 0
      m_AllowsAlphaSplitting: 0
      m_Overridden: 0
      m_AndroidETC2FallbackOverride: 0
    packingSettings:
      serializedVersion: 2
      padding: 2
      blockOffset: 1
      allowAlphaSplitting: 0
      enableRotation: 1
      enableTightPacking: 1
    variantMultiplier: 1
    packables:
    - {fileID: 102900000, guid: 1cf927ca3f17c534a94ff2ab1fda6071, type: 3}
    totalSpriteSurfaceArea: 3072
    bindAsDefault: 1
  m_MasterAtlas: {fileID: 0}
  m_PackedSprites:
  - {fileID: 21300000, guid: fed90a60e2ab1b44791e480b1ab50382, type: 3}
  - {fileID: 21300000, guid: fbc73831918a7134497414fd65e4f8c1, type: 3}
  - {fileID: 21300000, guid: fed63d53f76d4154c95a7f6168c805ab, type: 3}
  - {fileID: 21300000, guid: 4e7f96556b7c01d48b41334824bd3cf5, type: 3}
  - {fileID: 21300000, guid: e329250665dc9934b9ed4948a8532c8f, type: 3}
  - {fileID: 21300000, guid: f30c4a66f553b834a82d011c4c18b7aa, type: 3}
  - {fileID: 21300000, guid: 8cca0f864c9be1e4281ed1a68dbf7aba, type: 3}
  - {fileID: 21300000, guid: 8e830647c20d38e4ca6e046b8da2460c, type: 3}
  - {fileID: 21300000, guid: 12ca64f72552591448d8646e214455a0, type: 3}
  - {fileID: 21300000, guid: 9534c57e47896fe41a31aab95b85ebed, type: 3}
  - {fileID: 21300000, guid: 05ca065f7b05b4b44b067973fb87f868, type: 3}
  - {fileID: 21300000, guid: 36c2607fcaffee84c94b9d720c882fd1, type: 3}
  m_PackedSpriteNamesToIndex:
  - floor0
  - wall1
  - field
  - floor1
  - StoneTile
  - floor2
  - wall3
  - dirt
  - wall0
  - floor3
  - wall2
  - grass0
  m_Tag: Ground
  m_IsVariant: 0
