%YAML 1.1
%TAG !u! tag:unity3d.com,2011:
--- !u!114 &11400000
MonoBehaviour:
  m_ObjectHideFlags: 0
  m_CorrespondingSourceObject: {fileID: 0}
  m_PrefabInstance: {fileID: 0}
  m_PrefabAsset: {fileID: 0}
  m_GameObject: {fileID: 0}
  m_Enabled: 1
  m_EditorHideFlags: 0
  m_Script: {fileID: 11500000, guid: 82940273418caee47b8ee6fc5820fdc9, type: 3}
  m_Name: AppleTree
  m_EditorClassIdentifier: 
  m_Sprite: {fileID: 21300000, guid: b93c1ea282303b645a1b4a5a7e0c2689, type: 3}
  m_Color: {r: 1, g: 1, b: 1, a: 1}
  m_Transform:
    e00: 1
    e01: 0
    e02: 0
    e03: 0
    e10: 0
    e11: 1
    e12: 0
    e13: 0
    e20: 0
    e21: 0
    e22: 1
    e23: 0
    e30: 0
    e31: 0
    e32: 0
    e33: 1
  m_InstancedGameObject: {fileID: 0}
  m_Flags: 1
  m_ColliderType: 1
  tileType: 16
  opaque: 1
  passable: 0
  interactable: 1
  strength: 0
  toolType: 0
  pickItem: {fileID: 11400000, guid: 5a6210cd96501f74a9c79bc34b13d4cf, type: 2}
  pickItemBox: {fileID: 11400000, guid: 9bf11b3fd48e59a44a0e86481ee6f45a, type: 2}
  dropBox: {fileID: 0}
  uiSprite: {fileID: 0}
  replaceType: 11
  delete: 0
  mapColor: {r: 1, g: 0, b: 0.06410265, a: 1}
