%YAML 1.1
%TAG !u! tag:unity3d.com,2011:
--- !u!114 &11400000
MonoBehaviour:
  m_ObjectHideFlags: 0
  m_CorrespondingSourceObject: {fileID: 0}
  m_PrefabInstance: {fileID: 0}
  m_PrefabAsset: {fileID: 0}
  m_GameObject: {fileID: 0}
  m_Enabled: 1
  m_EditorHideFlags: 0
  m_Script: {fileID: 11500000, guid: 82940273418caee47b8ee6fc5820fdc9, type: 3}
  m_Name: FirDry
  m_EditorClassIdentifier: 
  m_Sprite: {fileID: 21300000, guid: 9399e8f088293ee4da6f429cc8365838, type: 3}
  m_Color: {r: 1, g: 1, b: 1, a: 1}
  m_Transform:
    e00: 1
    e01: 0
    e02: 0
    e03: 0
    e10: 0
    e11: 1
    e12: 0
    e13: 0
    e20: 0
    e21: 0
    e22: 1
    e23: 0
    e30: 0
    e31: 0
    e32: 0
    e33: 1
  m_InstancedGameObject: {fileID: 0}
  m_Flags: 1
  m_ColliderType: 1
  tileType: 22
  opaque: 1
  passable: 0
  interactable: 1
  strength: 30
  toolType: 1
  pickItem: {fileID: 0}
  dropBox: {fileID: 11400000, guid: 66ffed83a3749924eb4417895a652b81, type: 2}
  uiSprite: {fileID: 0}
  replaceType: 0
  delete: 1
  mapColor: {r: 1, g: 0.6666667, b: 0, a: 1}
