%YAML 1.1
%TAG !u! tag:unity3d.com,2011:
--- !u!114 &11400000
MonoBehaviour:
  m_ObjectHideFlags: 0
  m_CorrespondingSourceObject: {fileID: 0}
  m_PrefabInstance: {fileID: 0}
  m_PrefabAsset: {fileID: 0}
  m_GameObject: {fileID: 0}
  m_Enabled: 1
  m_EditorHideFlags: 0
  m_Script: {fileID: 11500000, guid: 82940273418caee47b8ee6fc5820fdc9, type: 3}
  m_Name: Tree
  m_EditorClassIdentifier: 
  m_Sprite: {fileID: 21300000, guid: 73d54a2d5de4c524c8294c68d12a7d48, type: 3}
  m_Color: {r: 1, g: 1, b: 1, a: 1}
  m_Transform:
    e00: 1
    e01: 0
    e02: 0
    e03: 0
    e10: 0
    e11: 1
    e12: 0
    e13: 0
    e20: 0
    e21: 0
    e22: 1
    e23: 0
    e30: 0
    e31: 0
    e32: 0
    e33: 1
  m_InstancedGameObject: {fileID: 0}
  m_Flags: 1
  m_ColliderType: 1
  tileType: 11
  opaque: 1
  passable: 0
  interactable: 0
  pickItem: {fileID: 0}
  uiSprite: {fileID: 0}
  replaceType: 0
  delete: 0
  mapColor: {r: 0.25882354, g: 0.2627451, b: 0.15294118, a: 1}
