%YAML 1.1
%TAG !u! tag:unity3d.com,2011:
--- !u!687078895 &4343727234628468602
SpriteAtlas:
  m_ObjectHideFlags: 0
  m_CorrespondingSourceObject: {fileID: 0}
  m_PrefabInstance: {fileID: 0}
  m_PrefabAsset: {fileID: 0}
  m_Name: Mobs
  m_EditorData:
    serializedVersion: 2
    textureSettings:
      serializedVersion: 2
      anisoLevel: 1
      compressionQuality: 50
      maxTextureSize: 2048
      textureCompression: 0
      filterMode: 0
      generateMipMaps: 0
      readable: 0
      crunchedCompression: 0
      sRGB: 1
    platformSettings:
    - serializedVersion: 2
      m_BuildTarget: DefaultTexturePlatform
      m_MaxTextureSize: 2048
      m_ResizeAlgorithm: 0
      m_TextureFormat: -1
      m_TextureCompression: 0
      m_CompressionQuality: 50
      m_CrunchedCompression: 0
      m_AllowsAlphaSplitting: 0
      m_Overridden: 0
      m_AndroidETC2FallbackOverride: 0
    packingSettings:
      serializedVersion: 2
      padding: 2
      blockOffset: 1
      allowAlphaSplitting: 0
      enableRotation: 1
      enableTightPacking: 1
    variantMultiplier: 1
    packables:
    - {fileID: 102900000, guid: 07217010e7eb4f046aec2a41294822e2, type: 3}
    totalSpriteSurfaceArea: 4521
    bindAsDefault: 1
  m_MasterAtlas: {fileID: 0}
  m_PackedSprites:
  - {fileID: 21300000, guid: 1b24b300aa77b3540b5d36e01193542b, type: 3}
  - {fileID: 21300000, guid: fcb429502a9f053449a280ce4b387d0c, type: 3}
  - {fileID: 21300000, guid: c9c46c80867e85e4e9552e8b7e0cbade, type: 3}
  - {fileID: 21300000, guid: 0f9b8041a37fdd541ba9c9e2f9d2dd1b, type: 3}
  - {fileID: 21300000, guid: 3e435194e3be15a44a68c9767d747b57, type: 3}
  - {fileID: 21300000, guid: 7b5dc7b45ce025045badcbde22c8f209, type: 3}
  - {fileID: 21300000, guid: ce80bbc49062f8b4185c5bd2ae0c7338, type: 3}
  - {fileID: 21300000, guid: 9562fae4b82629f4f93f6b98a12b8ecc, type: 3}
  - {fileID: 21300000, guid: 1825cc35918d4d5459826a3f9a5c5b8b, type: 3}
  - {fileID: 21300000, guid: 7111a0a6d64acb941a25cdd32fa1a72e, type: 3}
  - {fileID: 21300000, guid: f02bd9c65115dbc4e80449b587a59b1a, type: 3}
  - {fileID: 21300000, guid: 3c89152718b33ab44aa584e4157b2ae4, type: 3}
  - {fileID: 21300000, guid: 1a0dd17718abf0b49b9a0977f31aa70a, type: 3}
  - {fileID: 21300000, guid: ba17ae77cfd8df349a55d296419f3300, type: 3}
  - {fileID: 21300000, guid: f0015ae7a48c4014dbcf410344305187, type: 3}
  - {fileID: 21300000, guid: 8d422bec31e791d43a0a465f0a6ae902, type: 3}
  - {fileID: 21300000, guid: 289856dd49f3ec74ca7241925898148f, type: 3}
  - {fileID: 21300000, guid: e8d90d6ea2de4e044b000cf969ed1446, type: 3}
  - {fileID: 21300000, guid: dc1de69e26120784a95b5c8e525bb63d, type: 3}
  - {fileID: 21300000, guid: d937275fd68514d428aec83679c65fff, type: 3}
  - {fileID: 21300000, guid: e266369f4f2d6d140b293191b915099e, type: 3}
  - {fileID: 21300000, guid: 9af3daeff27851445ae374b7d3962841, type: 3}
  m_PackedSpriteNamesToIndex:
  - player_1
  - archer_0
  - skeleton_1
  - snail_1
  - largewolf_0
  - toad_1
  - hare_1
  - smallwolf_0
  - hare_0
  - skeleton_0
  - ram_1
  - snake_1
  - snail_0
  - largewolf_1
  - ram_0
  - player_0
  - archer_1
  - mouse_0
  - toad_0
  - mouse_1
  - snake_0
  - smallwolf_1
  m_Tag: Mobs
  m_IsVariant: 0
