%YAML 1.1
%TAG !u! tag:unity3d.com,2011:
--- !u!114 &11400000
MonoBehaviour:
  m_ObjectHideFlags: 0
  m_CorrespondingSourceObject: {fileID: 0}
  m_PrefabInstance: {fileID: 0}
  m_PrefabAsset: {fileID: 0}
  m_GameObject: {fileID: 0}
  m_Enabled: 1
  m_EditorHideFlags: 0
  m_Script: {fileID: 11500000, guid: a97d5011d0d66d9459ebb8f565ecc044, type: 3}
  m_Name: MainMenu
  m_EditorClassIdentifier: 
  useCache: 1
  lines:
  - key: tutorial
    rus: "\u041F\u0420\u041E\u0419\u0422\u0418 \u041E\u0411\u0423\u0427\u0415\u041D\u0418\u0415"
    eng: START TUTORIAL
  - key: sandbox
    rus: "\u0418\u0413\u0420\u0410\u0422\u042C"
    eng: PLAY
  - key: local
    rus: "\u042F\u0417\u042B\u041A: \u0420\u0423\u0421\u0421\u041A\u0418\u0419"
    eng: 'LANGUAGE: ENGLISH'
  - key: exit
    rus: "\u0412\u042B\u0425\u041E\u0414"
    eng: EXIT
