%YAML 1.1
%TAG !u! tag:unity3d.com,2011:
--- !u!114 &11400000
MonoBehaviour:
  m_ObjectHideFlags: 0
  m_CorrespondingSourceObject: {fileID: 0}
  m_PrefabInstance: {fileID: 0}
  m_PrefabAsset: {fileID: 0}
  m_GameObject: {fileID: 0}
  m_Enabled: 1
  m_EditorHideFlags: 0
  m_Script: {fileID: 11500000, guid: a51bb486d6af1c446ba51702bb9ae008, type: 3}
  m_Name: Apple
  m_EditorClassIdentifier: 
  dropPack:
  - item: {fileID: 11400000, guid: 5a6210cd96501f74a9c79bc34b13d4cf, type: 2}
    amount: {x: 1, y: 1}
    chance: 1
