%YAML 1.1
%TAG !u! tag:unity3d.com,2011:
--- !u!114 &11400000
MonoBehaviour:
  m_ObjectHideFlags: 0
  m_CorrespondingSourceObject: {fileID: 0}
  m_PrefabInstance: {fileID: 0}
  m_PrefabAsset: {fileID: 0}
  m_GameObject: {fileID: 0}
  m_Enabled: 1
  m_EditorHideFlags: 0
  m_Script: {fileID: 11500000, guid: 5515972f91a0ff84cae654fc8519ecce, type: 3}
  m_Name: TutorialDialog
  m_EditorClassIdentifier: 
  localizedData: {fileID: 11400000, guid: 66218be1951ab7a409a507e82d4b00fb, type: 2}
  nodes:
  - id: 1
    position: {x: -160, y: 284}
    localKey: StartReplica
    answers:
    - localKey: StartGetBerries
      nextNode: 2
    - localKey: StartGotBerries
      nextNode: 4
    - localKey: StartHelpBerries
      nextNode: 19
    - localKey: StartGetHaretails
      nextNode: 5
    - localKey: StartGotHaretails
      nextNode: 7
    - localKey: StartHelpHaretails
      nextNode: 20
    - localKey: StartGotMutton
      nextNode: 8
    - localKey: StartHelpMutton
      nextNode: 21
    - localKey: StartGetWolf
      nextNode: 9
    - localKey: StartGotWolf
      nextNode: 11
    - localKey: StartHelpWolf
      nextNode: 22
    - localKey: StartGetToad
      nextNode: 12
    - localKey: StartGotToad
      nextNode: 14
    - localKey: StartHelpToad
      nextNode: 23
    - localKey: StartGotTreasure
      nextNode: 25
    - localKey: StartHelpTreasure
      nextNode: 24
    - localKey: StartEnd
      nextNode: 26
    - localKey: StartHeal
      nextNode: 17
    - localKey: StartBye
      nextNode: 0
    questsToGive: []
    questsToComplete: []
    mustNoOpened: []
    mustNoClosed: []
    mustClosed: []
    mustOpened: []
    itemsToGive: []
    itemsToTake: []
  - id: 2
    position: {x: 153, y: 333}
    localKey: BerriesReplica
    answers:
    - localKey: BerriesAnswerOK
      nextNode: 3
    - localKey: BerriesAnswerNo
      nextNode: 0
    questsToGive: []
    questsToComplete: []
    mustNoOpened:
    - {fileID: 11400000, guid: af0a723f3881ffc4987330d65580917d, type: 2}
    mustNoClosed:
    - {fileID: 11400000, guid: af0a723f3881ffc4987330d65580917d, type: 2}
    mustClosed: []
    mustOpened: []
    itemsToGive: []
    itemsToTake: []
  - id: 3
    position: {x: 420, y: 399}
    localKey: 
    answers: []
    questsToGive:
    - {fileID: 11400000, guid: af0a723f3881ffc4987330d65580917d, type: 2}
    questsToComplete: []
    mustNoOpened: []
    mustNoClosed: []
    mustClosed: []
    mustOpened: []
    itemsToGive: []
    itemsToTake: []
  - id: 4
    position: {x: -461, y: 283}
    localKey: BerriesGiveReplica
    answers:
    - localKey: BerriesGiveAnswer
      nextNode: 1
    questsToGive: []
    questsToComplete:
    - {fileID: 11400000, guid: af0a723f3881ffc4987330d65580917d, type: 2}
    mustNoOpened: []
    mustNoClosed: []
    mustClosed: []
    mustOpened: []
    itemsToGive: []
    itemsToTake: []
  - id: 5
    position: {x: 159, y: 611}
    localKey: HaretailsReplica
    answers:
    - localKey: HaretailsAnswerOK
      nextNode: 6
    - localKey: HaretailsAnswerNo
      nextNode: 0
    questsToGive: []
    questsToComplete: []
    mustNoOpened:
    - {fileID: 11400000, guid: 846adc8388751a94889f23e8171f66e7, type: 2}
    - {fileID: 11400000, guid: d9fd313567bc352409fdd88eb0a698d6, type: 2}
    mustNoClosed:
    - {fileID: 11400000, guid: 846adc8388751a94889f23e8171f66e7, type: 2}
    - {fileID: 11400000, guid: d9fd313567bc352409fdd88eb0a698d6, type: 2}
    mustClosed:
    - {fileID: 11400000, guid: af0a723f3881ffc4987330d65580917d, type: 2}
    mustOpened: []
    itemsToGive: []
    itemsToTake: []
  - id: 6
    position: {x: 415, y: 723}
    localKey: 
    answers: []
    questsToGive:
    - {fileID: 11400000, guid: d9fd313567bc352409fdd88eb0a698d6, type: 2}
    - {fileID: 11400000, guid: 846adc8388751a94889f23e8171f66e7, type: 2}
    questsToComplete: []
    mustNoOpened: []
    mustNoClosed: []
    mustClosed: []
    mustOpened: []
    itemsToGive: []
    itemsToTake: []
  - id: 7
    position: {x: -468, y: 438}
    localKey: HaretailsGiveReplica
    answers:
    - localKey: HaretailsGiveAnswer
      nextNode: 1
    questsToGive: []
    questsToComplete:
    - {fileID: 11400000, guid: d9fd313567bc352409fdd88eb0a698d6, type: 2}
    mustNoOpened: []
    mustNoClosed: []
    mustClosed: []
    mustOpened: []
    itemsToGive: []
    itemsToTake: []
  - id: 8
    position: {x: -458, y: 589}
    localKey: MuttonGiveReplica
    answers:
    - localKey: MuttonGiveAnswer
      nextNode: 1
    questsToGive: []
    questsToComplete:
    - {fileID: 11400000, guid: 846adc8388751a94889f23e8171f66e7, type: 2}
    mustNoOpened: []
    mustNoClosed: []
    mustClosed: []
    mustOpened: []
    itemsToGive: []
    itemsToTake: []
  - id: 9
    position: {x: -14, y: 1110}
    localKey: WolfReplica
    answers:
    - localKey: WolfAnswerOK
      nextNode: 10
    - localKey: WolfAnswerNo
      nextNode: 0
    questsToGive: []
    questsToComplete: []
    mustNoOpened:
    - {fileID: 11400000, guid: d8a99af4287b1da46b40075e4c1f9c55, type: 2}
    mustNoClosed:
    - {fileID: 11400000, guid: d8a99af4287b1da46b40075e4c1f9c55, type: 2}
    mustClosed:
    - {fileID: 11400000, guid: 846adc8388751a94889f23e8171f66e7, type: 2}
    - {fileID: 11400000, guid: d9fd313567bc352409fdd88eb0a698d6, type: 2}
    mustOpened: []
    itemsToGive: []
    itemsToTake: []
  - id: 10
    position: {x: 184, y: 875}
    localKey: 
    answers: []
    questsToGive:
    - {fileID: 11400000, guid: d8a99af4287b1da46b40075e4c1f9c55, type: 2}
    questsToComplete: []
    mustNoOpened: []
    mustNoClosed: []
    mustClosed: []
    mustOpened: []
    itemsToGive: []
    itemsToTake: []
  - id: 11
    position: {x: -463, y: 761}
    localKey: WolfGiveReplica
    answers:
    - localKey: WolfGiveAnswer
      nextNode: 1
    questsToGive: []
    questsToComplete:
    - {fileID: 11400000, guid: d8a99af4287b1da46b40075e4c1f9c55, type: 2}
    mustNoOpened: []
    mustNoClosed: []
    mustClosed: []
    mustOpened: []
    itemsToGive:
    - item: {fileID: 11400000, guid: 1877714fac7ae4d4994d2b55310f7b22, type: 2}
      amount: 5
    itemsToTake: []
  - id: 12
    position: {x: 417, y: 845}
    localKey: ToadReplica
    answers:
    - localKey: ToadAnswerOK
      nextNode: 13
    - localKey: ToadAnswerNo
      nextNode: 0
    questsToGive: []
    questsToComplete: []
    mustNoOpened:
    - {fileID: 11400000, guid: 8635b7ff1b6bad34c9e16c982b7777e7, type: 2}
    mustNoClosed:
    - {fileID: 11400000, guid: 8635b7ff1b6bad34c9e16c982b7777e7, type: 2}
    mustClosed:
    - {fileID: 11400000, guid: d8a99af4287b1da46b40075e4c1f9c55, type: 2}
    mustOpened: []
    itemsToGive: []
    itemsToTake: []
  - id: 13
    position: {x: 664, y: 758}
    localKey: ToadReplicaFarewell
    answers:
    - localKey: ToadAnswerFarewell
      nextNode: 0
    questsToGive:
    - {fileID: 11400000, guid: 8635b7ff1b6bad34c9e16c982b7777e7, type: 2}
    questsToComplete: []
    mustNoOpened: []
    mustNoClosed: []
    mustClosed: []
    mustOpened: []
    itemsToGive: []
    itemsToTake: []
  - id: 14
    position: {x: 655, y: 290}
    localKey: ToadGiveReplica
    answers:
    - localKey: ToadGiveAnswerOK
      nextNode: 15
    - localKey: ToadGiveAnswerNo
      nextNode: 0
    questsToGive: []
    questsToComplete: []
    mustNoOpened:
    - {fileID: 11400000, guid: 6298513afbf53384a9d2a6c1f4dc43ae, type: 2}
    mustNoClosed:
    - {fileID: 11400000, guid: 6298513afbf53384a9d2a6c1f4dc43ae, type: 2}
    mustClosed:
    - {fileID: 11400000, guid: 8635b7ff1b6bad34c9e16c982b7777e7, type: 2}
    mustOpened: []
    itemsToGive: []
    itemsToTake: []
  - id: 15
    position: {x: 895, y: 278}
    localKey: TreasureReplica
    answers:
    - localKey: TreasureAnswerOK
      nextNode: 16
    - localKey: TreasureAnswerNo
      nextNode: 0
    questsToGive: []
    questsToComplete: []
    mustNoOpened: []
    mustNoClosed: []
    mustClosed: []
    mustOpened: []
    itemsToGive: []
    itemsToTake: []
  - id: 16
    position: {x: 1134, y: 274}
    localKey: TreasureWarnReplica
    answers:
    - localKey: TreasureWarnAnswer
      nextNode: 0
    questsToGive:
    - {fileID: 11400000, guid: 6298513afbf53384a9d2a6c1f4dc43ae, type: 2}
    questsToComplete: []
    mustNoOpened: []
    mustNoClosed: []
    mustClosed: []
    mustOpened: []
    itemsToGive:
    - item: {fileID: 11400000, guid: f017f9ae915589f4491cca7fca36e859, type: 2}
      amount: 1
    - item: {fileID: 11400000, guid: cb5b667cdb96dd14f807320bfab830b9, type: 2}
      amount: 1
    - item: {fileID: 11400000, guid: f584a2def2fb44d41b80e58375b06043, type: 2}
      amount: 1
    itemsToTake: []
  - id: 17
    position: {x: 117, y: 131}
    localKey: HealReplica
    answers:
    - localKey: HealAnswerOK
      nextNode: 18
    - localKey: HealAnswerNo
      nextNode: 1
    questsToGive: []
    questsToComplete: []
    mustNoOpened: []
    mustNoClosed: []
    mustClosed: []
    mustOpened: []
    itemsToGive: []
    itemsToTake: []
  - id: 18
    position: {x: 417, y: 133}
    localKey: HealGiveReplica
    answers:
    - localKey: HealGiveAnswer
      nextNode: 1
    questsToGive: []
    questsToComplete: []
    mustNoOpened: []
    mustNoClosed: []
    mustClosed: []
    mustOpened: []
    itemsToGive:
    - item: {fileID: 11400000, guid: 1877714fac7ae4d4994d2b55310f7b22, type: 2}
      amount: 1
    itemsToTake:
    - item: {fileID: 11400000, guid: 8203fd64b454e8947a9379e4d8e335be, type: 2}
      amount: 1
  - id: 19
    position: {x: -157, y: 79}
    localKey: BerriesHelpReplica
    answers:
    - localKey: BerriesHelpAnswer
      nextNode: 0
    questsToGive: []
    questsToComplete: []
    mustNoOpened: []
    mustNoClosed: []
    mustClosed: []
    mustOpened:
    - {fileID: 11400000, guid: af0a723f3881ffc4987330d65580917d, type: 2}
    itemsToGive: []
    itemsToTake: []
  - id: 20
    position: {x: -405, y: 90}
    localKey: HaretailHelpReplica
    answers:
    - localKey: HaretailHelpAnswer
      nextNode: 0
    questsToGive: []
    questsToComplete: []
    mustNoOpened: []
    mustNoClosed: []
    mustClosed: []
    mustOpened:
    - {fileID: 11400000, guid: d9fd313567bc352409fdd88eb0a698d6, type: 2}
    itemsToGive: []
    itemsToTake: []
  - id: 21
    position: {x: -646, y: 103}
    localKey: MuttonHelpReplica
    answers:
    - localKey: MuttonHelpAnswer
      nextNode: 0
    questsToGive: []
    questsToComplete: []
    mustNoOpened: []
    mustNoClosed: []
    mustClosed: []
    mustOpened:
    - {fileID: 11400000, guid: 846adc8388751a94889f23e8171f66e7, type: 2}
    itemsToGive: []
    itemsToTake: []
  - id: 22
    position: {x: -306, y: 1115}
    localKey: WolfHelpReplica
    answers:
    - localKey: WolfHelpAnswer
      nextNode: 0
    questsToGive: []
    questsToComplete: []
    mustNoOpened: []
    mustNoClosed: []
    mustClosed: []
    mustOpened:
    - {fileID: 11400000, guid: d8a99af4287b1da46b40075e4c1f9c55, type: 2}
    itemsToGive: []
    itemsToTake: []
  - id: 23
    position: {x: -538, y: 959}
    localKey: ToadHelpReplica
    answers:
    - localKey: ToadHelpAnswer
      nextNode: 0
    questsToGive: []
    questsToComplete: []
    mustNoOpened: []
    mustNoClosed: []
    mustClosed: []
    mustOpened:
    - {fileID: 11400000, guid: 8635b7ff1b6bad34c9e16c982b7777e7, type: 2}
    itemsToGive: []
    itemsToTake: []
  - id: 24
    position: {x: 429, y: 542}
    localKey: GoldHelpReplica
    answers:
    - localKey: GoldHelpAnswer
      nextNode: 0
    questsToGive: []
    questsToComplete: []
    mustNoOpened: []
    mustNoClosed: []
    mustClosed: []
    mustOpened:
    - {fileID: 11400000, guid: 6298513afbf53384a9d2a6c1f4dc43ae, type: 2}
    itemsToGive: []
    itemsToTake: []
  - id: 25
    position: {x: 231, y: 1049}
    localKey: GoldGiveReplica
    answers:
    - localKey: GoldGiveAnswer
      nextNode: 1
    questsToGive: []
    questsToComplete:
    - {fileID: 11400000, guid: 6298513afbf53384a9d2a6c1f4dc43ae, type: 2}
    mustNoOpened: []
    mustNoClosed: []
    mustClosed: []
    mustOpened: []
    itemsToGive: []
    itemsToTake: []
  - id: 26
    position: {x: 260, y: 1208}
    localKey: EndReplica
    answers:
    - localKey: EndAnswer
      nextNode: 0
    questsToGive: []
    questsToComplete: []
    mustNoOpened: []
    mustNoClosed: []
    mustClosed:
    - {fileID: 11400000, guid: 6298513afbf53384a9d2a6c1f4dc43ae, type: 2}
    mustOpened: []
    itemsToGive: []
    itemsToTake: []
  startNode: 1
