%YAML 1.1
%TAG !u! tag:unity3d.com,2011:
--- !u!114 &11400000
MonoBehaviour:
  m_ObjectHideFlags: 0
  m_CorrespondingSourceObject: {fileID: 0}
  m_PrefabInstance: {fileID: 0}
  m_PrefabAsset: {fileID: 0}
  m_GameObject: {fileID: 0}
  m_Enabled: 1
  m_EditorHideFlags: 0
  m_Script: {fileID: 11500000, guid: a97d5011d0d66d9459ebb8f565ecc044, type: 3}
  m_Name: Shelter
  m_EditorClassIdentifier: 
  useCache: 1
  lines:
  - key: title
    rus: "\u0428\u0410\u041B\u0410\u0428"
    eng: HUT
  - key: description
    rus: "\u0428\u0430\u043B\u0430\u0448 \u0438\u0437 \u0432\u0435\u0442\u043E\u043A.
      \u041F\u0440\u0438\u0433\u043E\u0434\u0435\u043D, \u0447\u0442\u043E\u0431\u044B
      \u0443\u043A\u0440\u044B\u0432\u0430\u0442\u044C\u0441\u044F \u043E\u0442 \u043F\u0430\u0434\u0430\u044E\u0449\u0438\u0445
      \u043B\u0438\u0441\u0442\u044C\u0435\u0432."
    eng: Shelter of branches. Suitable to hide from falling leaves.
