%YAML 1.1
%TAG !u! tag:unity3d.com,2011:
--- !u!114 &11400000
MonoBehaviour:
  m_ObjectHideFlags: 0
  m_CorrespondingSourceObject: {fileID: 0}
  m_PrefabInstance: {fileID: 0}
  m_PrefabAsset: {fileID: 0}
  m_GameObject: {fileID: 0}
  m_Enabled: 1
  m_EditorHideFlags: 0
  m_Script: {fileID: 11500000, guid: 01c8f8ad614ff7d4d8d55eada94310f5, type: 3}
  m_Name: Axe
  m_EditorClassIdentifier: 
  result:
    item: {fileID: 11400000, guid: 0997f298df7c8f549b45648651972362, type: 2}
    amount: 1
  components:
  - item: {fileID: 11400000, guid: a37bac5e7eaabc54080724caa5826734, type: 2}
    amount: 5
  - item: {fileID: 11400000, guid: b8dee55309ad82c4bb67e938ceca4219, type: 2}
    amount: 1
  - item: {fileID: 11400000, guid: fd88f929cef40554faae3010a9d549a0, type: 2}
    amount: 10
  recipeType: 1
