%YAML 1.1
%TAG !u! tag:unity3d.com,2011:
--- !u!114 &11400000
MonoBehaviour:
  m_ObjectHideFlags: 0
  m_CorrespondingSourceObject: {fileID: 0}
  m_PrefabInstance: {fileID: 0}
  m_PrefabAsset: {fileID: 0}
  m_GameObject: {fileID: 0}
  m_Enabled: 1
  m_EditorHideFlags: 0
  m_Script: {fileID: 11500000, guid: 01c8f8ad614ff7d4d8d55eada94310f5, type: 3}
  m_Name: Rope
  m_EditorClassIdentifier: 
  result:
    item: {fileID: 11400000, guid: b8dee55309ad82c4bb67e938ceca4219, type: 2}
    amount: 1
  buildType: 0
  components:
  - item: {fileID: 11400000, guid: dc5ff714d82b7c047a4ea4463490285f, type: 2}
    amount: 2
  recipeType: 0
  toolType: 0
