%YAML 1.1
%TAG !u! tag:unity3d.com,2011:
--- !u!687078895 &4343727234628468602
SpriteAtlas:
  m_ObjectHideFlags: 0
  m_CorrespondingSourceObject: {fileID: 0}
  m_PrefabInstance: {fileID: 0}
  m_PrefabAsset: {fileID: 0}
  m_Name: Objects
  m_EditorData:
    serializedVersion: 2
    textureSettings:
      serializedVersion: 2
      anisoLevel: 1
      compressionQuality: 50
      maxTextureSize: 2048
      textureCompression: 0
      filterMode: 0
      generateMipMaps: 0
      readable: 0
      crunchedCompression: 0
      sRGB: 1
    platformSettings:
    - serializedVersion: 2
      m_BuildTarget: DefaultTexturePlatform
      m_MaxTextureSize: 2048
      m_ResizeAlgorithm: 0
      m_TextureFormat: -1
      m_TextureCompression: 0
      m_CompressionQuality: 50
      m_CrunchedCompression: 0
      m_AllowsAlphaSplitting: 0
      m_Overridden: 0
      m_AndroidETC2FallbackOverride: 0
    packingSettings:
      serializedVersion: 2
      padding: 2
      blockOffset: 1
      allowAlphaSplitting: 0
      enableRotation: 1
      enableTightPacking: 1
    variantMultiplier: 1
    packables:
    - {fileID: 102900000, guid: 60fda5d5974c59e40972d12e15bab0d0, type: 3}
    totalSpriteSurfaceArea: 8469
    bindAsDefault: 1
  m_MasterAtlas: {fileID: 0}
  m_PackedSprites:
  - {fileID: 21300000, guid: 45f7871085493794fbceaa154cad88c0, type: 3}
  - {fileID: 21300000, guid: a4bbd8208e2c214419f6ca3f2d6ec8ab, type: 3}
  - {fileID: 21300000, guid: b2826c90ec676314ea3ca2a118e5361a, type: 3}
  - {fileID: 21300000, guid: bc510aa06bfc43a42bd4e7233ab514f7, type: 3}
  - {fileID: 21300000, guid: 9399e8f088293ee4da6f429cc8365838, type: 3}
  - {fileID: 21300000, guid: c4c0c631a5fc3c94ba3e6080bcbf8992, type: 3}
  - {fileID: 21300000, guid: 276e2e31961247c459b249de46d30c0f, type: 3}
  - {fileID: 21300000, guid: 38e147620b94b7240bac0b911eebdc20, type: 3}
  - {fileID: 21300000, guid: aa57ad823fde16244ac0295ec61a9e6e, type: 3}
  - {fileID: 21300000, guid: b93c1ea282303b645a1b4a5a7e0c2689, type: 3}
  - {fileID: 21300000, guid: 7454e5b2635b8d2448c74b1414c6b4de, type: 3}
  - {fileID: 21300000, guid: 789ee6c2818f8c347940ab07e018bb9a, type: 3}
  - {fileID: 21300000, guid: 43a7e2e2bc93915428a5b7a90adbe34f, type: 3}
  - {fileID: 21300000, guid: 21dd0033cfdfa78409d19171b63a7d14, type: 3}
  - {fileID: 21300000, guid: 95b24a049e0caa7488bfbe7a53c1d44c, type: 3}
  - {fileID: 21300000, guid: 23d9995428d032543ae4306c0f6da737, type: 3}
  - {fileID: 21300000, guid: 615deb84b1ca4004bafc2f55450b7608, type: 3}
  - {fileID: 21300000, guid: e385c5947c290a44182ce7ec3077dbfb, type: 3}
  - {fileID: 21300000, guid: 10676ee4825914440a82e808d79dda54, type: 3}
  - {fileID: 21300000, guid: 038515f45e478c04ca10b67dfe7d5846, type: 3}
  - {fileID: 21300000, guid: 7e0763156c0e15a4ca0da38075037eb8, type: 3}
  - {fileID: 21300000, guid: 1e58c425ffd73a1409dbda93a36e73b2, type: 3}
  - {fileID: 21300000, guid: b72f5535bc14503469e7b43de24eea8d, type: 3}
  - {fileID: 21300000, guid: fb2dafa50ee6e8a47a4bb8666728d758, type: 3}
  - {fileID: 21300000, guid: 877233c504b08f449b16397f8d0fbab9, type: 3}
  - {fileID: 21300000, guid: f4031616ac29c234abffb684c6352563, type: 3}
  - {fileID: 21300000, guid: 3f2b39563bb05f14ab656ca79e0126b3, type: 3}
  - {fileID: 21300000, guid: db5f11866d231c640832a574d8464c4c, type: 3}
  - {fileID: 21300000, guid: 7c8eb196141edba42b03ff9f7e345456, type: 3}
  - {fileID: 21300000, guid: dc997b96af88e36428a970da6381ea06, type: 3}
  - {fileID: 21300000, guid: a4104da8c16a90049ae5114f303f4e03, type: 3}
  - {fileID: 21300000, guid: d30760b8c14560c4b9232bdc91fb5aa4, type: 3}
  - {fileID: 21300000, guid: 8d0f4fe8850368e4cbcadd7b439a60b3, type: 3}
  - {fileID: 21300000, guid: c80e3b59b103b0b40a7ce614beb6bd37, type: 3}
  - {fileID: 21300000, guid: 797c56b9d5404984d9b0b3cb9f3e5b3e, type: 3}
  - {fileID: 21300000, guid: e8844de933013b94c9afd688285ae819, type: 3}
  - {fileID: 21300000, guid: 3ad0022af62d94943816850a77fe5a9a, type: 3}
  - {fileID: 21300000, guid: d3f619ca0a0800d43b535321bbeef783, type: 3}
  - {fileID: 21300000, guid: e8e2271ba9dce814b9bfa59f1054467e, type: 3}
  - {fileID: 21300000, guid: cdab382c566b3bd49a711c203d2e4c0d, type: 3}
  - {fileID: 21300000, guid: 126e9b8c80c6f8443abedaff6b405471, type: 3}
  - {fileID: 21300000, guid: 73d54a2d5de4c524c8294c68d12a7d48, type: 3}
  - {fileID: 21300000, guid: 04fd676ded6fb34498814cf3e8e05b8a, type: 3}
  - {fileID: 21300000, guid: dbadb79ed2268b249ae0acb1f0d071e0, type: 3}
  - {fileID: 21300000, guid: 3653e6ae975989a429a8eb6f84a7b4b2, type: 3}
  - {fileID: 21300000, guid: b15014ce42acf434583aa9ecf7649a08, type: 3}
  - {fileID: 21300000, guid: 26fcdcce584d89244804afc55b88aaa8, type: 3}
  - {fileID: 21300000, guid: 58ee04ee43332a044b33d294576db221, type: 3}
  - {fileID: 21300000, guid: 744d291f6054dc04e896b63aa92fbf6e, type: 3}
  - {fileID: 21300000, guid: 099bc34ffc51de84299523bc6590a669, type: 3}
  - {fileID: 21300000, guid: b96981bfcf068a9449b3a2342658b40d, type: 3}
  m_PackedSpriteNamesToIndex:
  - hare_tail
  - sword
  - door_opened
  - club
  - fir_dry
  - toadstool_sprout
  - salve
  - stone
  - wooden_helmet
  - apple_tree
  - hat
  - tree_dry
  - berries
  - mutton
  - gold
  - fern_sprout
  - coat
  - wooden_armor
  - exit_down
  - wooden_boots
  - rock
  - health_potion
  - fern_seeds
  - axe
  - horizontalroad
  - passage
  - candles
  - shield
  - rope
  - grass1
  - berry_sprout
  - verticalroad
  - bush
  - seedbed
  - web
  - toadstool_seeds
  - shelter
  - door_closed
  - mushrooms
  - log
  - apple
  - tree
  - fireplace
  - pick
  - fir
  - stick
  - berry_seeds
  - spade
  - fern
  - toadstool
  - eye
  m_Tag: Objects
  m_IsVariant: 0
