%YAML 1.1
%TAG !u! tag:unity3d.com,2011:
--- !u!114 &11400000
MonoBehaviour:
  m_ObjectHideFlags: 0
  m_CorrespondingSourceObject: {fileID: 0}
  m_PrefabInstance: {fileID: 0}
  m_PrefabAsset: {fileID: 0}
  m_GameObject: {fileID: 0}
  m_Enabled: 1
  m_EditorHideFlags: 0
  m_Script: {fileID: 11500000, guid: 8f5aff576b4ad9743a58f03eed34ab8a, type: 3}
  m_Name: Stick
  m_EditorClassIdentifier: 
  itemType: 123
  localizedData: {fileID: 11400000, guid: 5e19c3a593ca6f54d85edfcc0428c40c, type: 2}
  uiImage: {fileID: 21300000, guid: 416cebd16fd60b443a765f2b40fa3ad0, type: 3}
  worldImage: {fileID: 21300000, guid: b15014ce42acf434583aa9ecf7649a08, type: 3}
  usable: 0
  edible: 0
  equipType: 0
  attack: 0
  defense: 0
  healValue: 0
