%YAML 1.1
%TAG !u! tag:unity3d.com,2011:
--- !u!114 &11400000
MonoBehaviour:
  m_ObjectHideFlags: 0
  m_CorrespondingSourceObject: {fileID: 0}
  m_PrefabInstance: {fileID: 0}
  m_PrefabAsset: {fileID: 0}
  m_GameObject: {fileID: 0}
  m_Enabled: 1
  m_EditorHideFlags: 0
  m_Script: {fileID: 11500000, guid: 1bcba989ad0e4324da96613e04820143, type: 3}
  m_Name: TutorialForestGD
  m_EditorClassIdentifier: 
  overrideMobGroupsData: {fileID: 0}
  dirtTile: {fileID: 11400000, guid: d4748b8aa5957b24aba9fb5080ff83ea, type: 2}
  stoneTile: {fileID: 11400000, guid: 2fe42f91072fca942a9ac24ba6f092cf, type: 2}
  fieldTile: {fileID: 11400000, guid: 51925322b6cc3644e85e3971e3e5649a, type: 2}
  grass0Tile: {fileID: 11400000, guid: 838b5d6f8200bd14a9e3d8bf257eb4e3, type: 2}
  npc: {fileID: 4792917169362097480, guid: 5919dcfe6ef4a424ebad5bce7ff7ac4d, type: 3}
  fogTile: {fileID: 11400000, guid: 6dbe4d7fe090d1f41872de2263019b10, type: 2}
  mobPosition: []
