%YAML 1.1
%TAG !u! tag:unity3d.com,2011:
--- !u!114 &11400000
MonoBehaviour:
  m_ObjectHideFlags: 0
  m_CorrespondingSourceObject: {fileID: 0}
  m_PrefabInstance: {fileID: 0}
  m_PrefabAsset: {fileID: 0}
  m_GameObject: {fileID: 0}
  m_Enabled: 1
  m_EditorHideFlags: 0
  m_Script: {fileID: 11500000, guid: dbc66a519a636fb4eb8a9e1a513eb174, type: 3}
  m_Name: ZooGD
  m_EditorClassIdentifier: 
  overrideMobGroupsData: {fileID: 11400000, guid: 750410b80947a92468d63d79080d09a8,
    type: 2}
  floor: {fileID: 11400000, guid: 838b5d6f8200bd14a9e3d8bf257eb4e3, type: 2}
  wall: {fileID: 11400000, guid: a8c251a0b12407a418617acf9eff7d17, type: 2}
  fogTile: {fileID: 11400000, guid: 6dbe4d7fe090d1f41872de2263019b10, type: 2}
  allMobPrefabs:
  - {fileID: 114278297154080042, guid: e815b8cc6d94ef747ab56a8ff3b6ae0c, type: 3}
  - {fileID: 114278297154080042, guid: cdf45fb8ddc4ebd42acfcffa50701911, type: 3}
  - {fileID: 114876472369419276, guid: 32de1dd91b5cc2c43aa292077f28cac3, type: 3}
  - {fileID: 114144037895366686, guid: 6af00a83d3a0ff549b23b2422552c9cc, type: 3}
  - {fileID: 114144037895366686, guid: 563af6b4573131246b8128720e3b3d8d, type: 3}
  - {fileID: 114144037895366686, guid: ce2f1bdacc511b341a618bcdbdc43d8a, type: 3}
  - {fileID: 114144037895366686, guid: cd16946313434f84ca941b12566a6939, type: 3}
  - {fileID: 114144037895366686, guid: bf903c0754ad1fc4391a0f240445b28b, type: 3}
  - {fileID: 114144037895366686, guid: 57586c96f87e4ea409c9263e968f4e3f, type: 3}
  npc: {fileID: 4792917169362097480, guid: 5919dcfe6ef4a424ebad5bce7ff7ac4d, type: 3}
